<svg xmlns="http://www.w3.org/2000/svg" xmlns:xlink="http://www.w3.org/1999/xlink" width="150" height="25" viewBox="0 0 150 25">
    <g id="Logo" transform="translate(0.5 0.5)">
      <path id="Path_364" data-name="Path 364" d="M19.344,10.158h-1.6a12.654,12.654,0,0,0-2.18-5.109A4.592,4.592,0,0,0,11.681,2.7c-1.532.1-2.724,1.43-3.235,3.78A21.683,21.683,0,0,0,7.9,12.27c0,6.062,1.975,11,4.359,10.83.818-.034,1.056-.579,1.056-2.146V15.4c0-1.805-.171-2.01-1.7-2.111V12.167H21.863v1.09c-1.294.1-1.532.409-1.532,2.146v8.752h-.987a5.676,5.676,0,0,0-1.6-1.533c-3.848,1.839-4.665,2.112-7.288,2.112C4.155,24.734,0,20.136,0,13.188,0,6.31,4.563,1,10.522,1a14.632,14.632,0,0,1,4.837.715,4.734,4.734,0,0,0,1.566.341c.409,0,.477-.068.818-.613h1.09Z" transform="translate(0 -0.734)" />
      <path id="Path_365" data-name="Path 365" d="M100.043,29.072a8.853,8.853,0,0,1,1.839,5.381,7.562,7.562,0,0,1-2.315,6.1,7.643,7.643,0,0,1-5.994,2.419,8.18,8.18,0,0,1-8.412-8.412,9.228,9.228,0,0,1,1.975-5.789A7.873,7.873,0,0,1,93.5,25.938a7.735,7.735,0,0,1,6.539,3.134m-7.935.2a29,29,0,0,0-.409,5.176,29.278,29.278,0,0,0,.409,5.176c.2,1.09.647,1.635,1.43,1.635.647,0,1.124-.613,1.328-1.635a28.253,28.253,0,0,0,.408-5.244,26.206,26.206,0,0,0-.408-5.108c-.238-1.09-.681-1.635-1.4-1.635s-1.158.613-1.362,1.635" transform="translate(-62.719 -19.103)" />
      <path id="Path_366" data-name="Path 366" d="M149.471,2.273a19.381,19.381,0,0,0,3.746-.953,26.907,26.907,0,0,0,3-1.226h1.055V20.321c0,1.635.171,1.942,1.26,2.078v1.09H149.5V22.4c1.09-.136,1.294-.443,1.294-2.078V4.826c0-1.43-.068-1.5-1.328-1.5Z" transform="translate(-110.082 -0.069)" />
      <path id="Path_367" data-name="Path 367" d="M341.994,27.811a7.107,7.107,0,0,1,4.87-1.873,5.644,5.644,0,0,1,3.508,1.26,4.845,4.845,0,0,1,1.4,3.678v8.479c0,1.635.2,1.942,1.26,2.078v1.09h-8.991v-1.09c1.09-.136,1.26-.443,1.26-2.078V31.489c0-1.771-.476-2.588-1.5-2.588-.512,0-.954.238-1.806.954v9.5c0,1.635.17,1.942,1.26,2.078v1.09H334.23v-1.09c1.09-.136,1.294-.443,1.294-2.078v-9.5a.829.829,0,0,0-.443-.579,2.073,2.073,0,0,0-.885-.1v-1.09a18.905,18.905,0,0,0,3.746-.919,26.7,26.7,0,0,0,3-1.226h1.055Z" transform="translate(-246.127 -19.103)" />
      <path id="Path_368" data-name="Path 368" d="M422.634,37.891c-1.839,3.3-4.5,5.075-7.663,5.075a7.287,7.287,0,0,1-5.551-2.18,9.066,9.066,0,0,1-2.248-5.687,8.549,8.549,0,0,1,2.214-6.334,7.9,7.9,0,0,1,6.062-2.827c3.815,0,6.471,2.043,6.471,5.006a2.747,2.747,0,0,1-2.69,2.827,2.922,2.922,0,0,1-3.2-2.793,4.734,4.734,0,0,1,.136-1.668c.136-.477.238-.852.272-1.056.068-.647-.238-1.09-.783-1.09-.681,0-1.328.647-1.7,1.634a8.585,8.585,0,0,0-.477,3.44,9.124,9.124,0,0,0,1.7,5.279,3.489,3.489,0,0,0,2.486,1.362c1.328.137,2.452-.341,4.359-1.805Z" transform="translate(-299.873 -19.103)" />
      <path id="Path_369" data-name="Path 369" d="M472.932,8.709A8.055,8.055,0,0,1,477.7,6.9c3.337,0,5.108,1.941,5.108,5.551v7.867c0,1.635.2,1.942,1.226,2.078v1.09h-8.957V22.4c1.056-.136,1.26-.443,1.26-2.078v-7.9c0-1.8-.545-2.69-1.6-2.588a3.069,3.069,0,0,0-1.8.885v9.6c0,1.635.17,1.942,1.26,2.078v1.09h-9.025V22.4c1.09-.136,1.294-.443,1.294-2.078V4.792c0-1.362-.1-1.464-1.328-1.464V2.273a19.382,19.382,0,0,0,3.746-.953,26.823,26.823,0,0,0,3-1.226h1.056Z" transform="translate(-342.559 -0.069)" />
      <path id="Path_370" data-name="Path 370" d="M548.092,66.647a3.37,3.37,0,1,1-3.318-3.353,3.369,3.369,0,0,1,3.318,3.353" transform="translate(-398.692 -46.615)" />
      <path id="Path_371" data-name="Path 371" d="M196.239,21.653a5.769,5.769,0,0,1-4.694,2.279c-3.537,0-5.883-3.1-5.883-7.686,0-5.679,2.482-9.114,6.87-9.352a6.69,6.69,0,0,1,3.707.748V4.752c0-1.326-.1-1.428-1.293-1.428V2.269a19.673,19.673,0,0,0,3.706-.952A23.346,23.346,0,0,0,201.646.093H202.7V19.749c0,.851.272,1.088,1.292,1.122v.986a12.6,12.6,0,0,0-1.836.375A20.084,20.084,0,0,0,197.5,23.8h-1.258Zm0-12.242a2.593,2.593,0,0,0-1.7-.782,1.639,1.639,0,0,0-1.395,1.191,13.623,13.623,0,0,0-.68,4.522v.817a17.163,17.163,0,0,0,.442,4.557c.34.918.952,1.462,1.633,1.394.987-.068,1.7-1.394,1.7-3.23Z" transform="translate(-136.735 -0.069)" />
      <path id="Path_372" data-name="Path 372" d="M303.211,39.305c0,1.636.2,1.943,1.261,2.08v1.09h-9v-1.09c1.091-.137,1.261-.444,1.261-2.08V30.441c0-1.159-.1-1.261-1.227-1.3h-.068V28.055a22.422,22.422,0,0,0,6.715-2.182h1.058Z" transform="translate(-217.583 -19.055)" />
      <path id="Path_373" data-name="Path 373" d="M274.164.409A11.51,11.51,0,0,0,270.687,0c-.246,0-.484.006-.722.014v0l-.231.011-.141.007a20.289,20.289,0,0,0-4,.486h0c-3.845.9-5.928,3.219-6.023,6.779H258.38V8.42h1.193V20.25c0,1.636-.171,1.943-1.261,2.08v1.09h9V22.33c-1.09,0-1.261-.307-1.261-2.08V8.42h1.261V7.3h-1.363a9.5,9.5,0,0,0-.307-2.216c-.682-1.739-.682-1.739-.682-2.148,0-.7.465-1.177,1.454-1.485a3.243,3.243,0,0,1,2.509.389c.08.06.164.127.264.209a1.819,1.819,0,0,0-.17.784c0,1.466,1.6,2.625,3.648,2.625,1.943,0,3.477-1.16,3.477-2.625A2.7,2.7,0,0,0,274.164.409" transform="translate(-190.24 0)" />
    </g>
</svg>