<svg xmlns="http://www.w3.org/2000/svg" xmlns:xlink="http://www.w3.org/1999/xlink" width="20" height="20" viewBox="0 0 20 20">
    <g transform="translate(2 2)">
        <path d="M0,5,5,0l5,5" transform="translate(6)" fill="none" stroke-linecap="round" stroke-linejoin="round" stroke-width="2"/>
        <path d="M0,16H7a4,4,0,0,0,4-4V0" fill="none" stroke-linecap="round" stroke-linejoin="round" stroke-width="2"/>
    </g>
</svg>