<svg xmlns="http://www.w3.org/2000/svg" xmlns:xlink="http://www.w3.org/1999/xlink" width="100" height="100" viewBox="0 0 100 100">
	<rect width="100" height="100" fill="#0bbcdd"/>
	<path d="M16.868,17H27.62V14.048H20.228V.68h-3.36Zm20.4.216A8.265,8.265,0,0,0,45.716,8.84a8.448,8.448,0,0,0-16.9,0A8.265,8.265,0,0,0,37.268,17.216Zm0-3c-2.976,0-4.992-2.328-4.992-5.376s2.016-5.376,4.992-5.376S42.26,5.792,42.26,8.84,40.244,14.216,37.268,14.216Zm19.248,3c5.472,0,8.3-3.552,8.04-8.952H56.924v2.928H61c-.384,1.656-2.016,3.048-4.512,3.048-3,0-5.016-2.352-5.016-5.4s2.016-5.328,4.992-5.328a4.415,4.415,0,0,1,3.984,2.232l2.64-1.872A7.3,7.3,0,0,0,56.468.488,8.245,8.245,0,0,0,48.02,8.84,8.178,8.178,0,0,0,56.516,17.216Zm18.72,0A8.265,8.265,0,0,0,83.684,8.84a8.448,8.448,0,0,0-16.9,0A8.265,8.265,0,0,0,75.236,17.216Zm0-3c-2.976,0-4.992-2.328-4.992-5.376s2.016-5.376,4.992-5.376,4.992,2.328,4.992,5.376S78.212,14.216,75.236,14.216Z" transform="translate(0 41)" fill="#fff"/>
</svg>